/Users/adamwhite/IdeaProjects/ProjectSweater/src/test/java/com/company/ApplicationCLITest.java
/Users/adamwhite/IdeaProjects/ProjectSweater/src/test/java/com/company/utility/JsonReaderTest.java
/Users/adamwhite/IdeaProjects/ProjectSweater/src/test/java/com/company/utility/HttpClientTest.java
